<?xml version="1.0" encoding="UTF-8"?>
<CustomTab xmlns="http://soap.sforce.com/2006/04/metadata">
    <icon>015d00000010wVi</icon>
    <label>Supplier Dashboards</label>
    <mobileReady>false</mobileReady>
    <motif>Custom290: TV Widescreen</motif>
    <page>BSureS_Dashboard</page>
</CustomTab>
